…
# A tibble: 2,000 × 12
       Y     S     Z Smiss  Miss     W .fitted .resid    .hat .sigma  .cooksd .std.resid
   <dbl> <dbl> <dbl> <dbl> <dbl> <dbl>   <dbl>  <dbl>   <dbl>  <dbl>    <dbl>      <dbl>
 1  18.9  3.59     0  3.59     1   1     0.785  0.696 0.00100  0.985 0.000137      0.696
 2  30.5  5.34     0  5.34     1   0.6   0.785  0.696 0.00100  0.985 0.000137      0.696
 3  22.1  5.12     0  5.12     1   1     0.785  0.696 0.00100  0.985 0.000137      0.696
 4  23.1  4.81     0  4.81     1   1     0.785  0.696 0.00100  0.985 0.000137      0.696
 5  26.1  4.97     0  4.97     1   1     0.785  0.696 0.00100  0.985 0.000137      0.696
 6  25.1  4.56     0  4.56     1   1     0.785  0.696 0.00100  0.985 0.000137      0.696
 7  28.1  5.31     0  5.31     1   0.6   0.785  0.696 0.00100  0.985 0.000137      0.696
 8  29.0  5.28     0  5.28     1   0.6   0.785  0.696 0.00100  0.985 0.000137      0.696
 9  27.1  4.95     0 NA        0   0.6   0.785 -1.75  0.00100  0.985 0.00183      -1.75 
10  19.3  4.31     0  4.31     1   1     0.785  0.696 0.00100  0.985 0.000137      0.696
# ℹ 1,990 more rows
# ℹ Use `print(n = ...)` to see more rows
…
